[
  {
    "flowerID": 1,
    "name": "Rose",
    "soil": "SOIL",
    "origin": "Ukraine",
    "visualParameters": {
      "stemColor": "GREEN",
      "leafColor": "LIGHT_GREEN",
      "averagePlantSize": 75
    },
    "growingTips": {
      "temperature": 15,
      "lighting": true,
      "watering": 100
    },
    "multiplying": "CUTTINGS"
  },
  {
    "flowerID": 2,
    "name": "Lily",
    "soil": "SOIL",
    "origin": "Poland",
    "visualParameters": {
      "stemColor": "GREEN",
      "leafColor": "GREEN",
      "averagePlantSize": 50
    },
    "growingTips": {
      "temperature": 18,
      "lighting": true,
      "watering": 200
    },
    "multiplying": "CUTTINGS"
  },
  {
    "flowerID": 3,
    "name": "Orchid",
    "soil": "SOD_PODZOLIC",
    "origin": "Netherlands",
    "visualParameters": {
      "stemColor": "GREEN",
      "leafColor": "GREEN",
      "averagePlantSize": 90
    },
    "growingTips": {
      "temperature": 20,
      "lighting": false,
      "watering": 50
    },
    "multiplying": "CUTTINGS"
  },
  {
    "flowerID": 4,
    "name": "Gerbera",
    "soil": "SOIL",
    "origin": "Ukraine",
    "visualParameters": {
      "stemColor": "LIGHT_GREEN",
      "leafColor": "LIGHT_GREEN",
      "averagePlantSize": 50
    },
    "growingTips": {
      "temperature": 20,
      "lighting": true,
      "watering": 100
    },
    "multiplying": "SEED"
  },
  {
    "flowerID": 5,
    "name": "Carnation",
    "soil": "SOIL",
    "origin": "Ukraine",
    "visualParameters": {
      "stemColor": "GREEN",
      "leafColor": "GREEN",
      "averagePlantSize": 40
    },
    "growingTips": {
      "temperature": 25,
      "lighting": true,
      "watering": 100
    },
    "multiplying": "SEED"
  }
]